{
  "$schema": "https://docs.renovatebot.com/renovate-schema.json",
  "extends": ["config:recommended", ":dependencyDashboard"],
  "platformAutomerge": true,
  "prCreation": "immediate",
  "packageRules": [
    {
      "description": "Trigger breaking release for major updates",
      "matchPackageNames": [
        "renovate/renovate",
        "ghcr.io/renovatebot/renovate"
      ],
      "matchUpdateTypes": ["major"],
      "commitMessagePrefix": "feat(deps)!",
      "automergeType": "pr"
    },
    {
        "dependencyDashboardApproval": true,
        "matchUpdateTypes": [
          "major"
        ]
      },
    {
      "description": "Trigger feature release for minor updates",
      "matchPackageNames": [
        "renovate/renovate",
        "ghcr.io/renovatebot/renovate"
      ],
      "matchUpdateTypes": ["minor"],
      "semanticCommitType": "feat",
      "automergeType": "pr"
    },
    {
      "description": "Trigger fix release for patch updates",
      "matchPackageNames": [
        "renovate/renovate",
        "ghcr.io/renovatebot/renovate"
      ],
      "matchUpdateTypes": ["patch", "digest"],
      "semanticCommitType": "fix",
      "automergeType": "pr"
    },
    {
      "description": "Schedule digest updates daily",
      "matchUpdateTypes": ["digest"],
      "extends": ["schedule:daily"]
    },
    {
      "description": "Use node versioning and chore for node images",
      "matchPackageNames": ["ghcr.io/containerbase/node"],
      "semanticCommitType": "chore",
      "versioning": "node"
    },
    {
      "description": "Update runner references in readme",
      "matchDepNames": ["renovate-runner"],
      "matchFileNames": ["README.md"],
      "additionalBranchPrefix": "docs-",
      "automerge": true,
      "dependencyDashboardApproval": true,
      "semanticCommitType": "docs",
      "separateMajorMinor": false
    }
   ]
} 
   
